<?xml version="1.0"?>
<!-- Single block, with a fix end-effector in the center -->
<robot name="block">
    <link name="block_base_link">
        <inertial>
            <origin rpy="0 0 0" xyz="0 0 0"/>
            <mass value="1.0"/>
            <inertia ixx="1.0" ixy="0.0" ixz="0.0" iyy="1.0" iyz="0.0" izz="1.0"/>
        </inertial>
        <visual>
            <origin rpy="0.0 0.0 0.0" xyz="0.0 0.0 0.0"/>
            <geometry>
                <box size="1.0 1.0 1.0"/>
            </geometry>
            <material name="blockmat">
                <color rgba="0.1 0.7 0.1 1"/>
            </material>
        </visual>
        <collision>
            <origin rpy="0 0 0" xyz="0.0 0.0 0.0"/>
            <geometry>
                <box size="1.0 1.0 1.0"/>
            </geometry>
        </collision>
    </link>

    <!--
    End-effector
    -->

    <link name="link_ee"/>

    <joint name="link_ee_joint" type="fixed">
        <parent link="block_base_link"/>
        <child link="link_ee"/>
        <origin xyz="0.0 0.0 0.0"/>
    </joint>

</robot>
